WIO-fish - 4 Reading data into R
…
Figure 4.1: penguins data

4.3 Comma-Separated (.csv)

The most commonly format that R like is the comma-separated files. Although Base R provides various functions like read.table(), read.csv(), read.table() and read.csv2() to import data from the local directories into R workspace, for this book we use an read_csv() function from readr. If you have a tabular data stored in your working directory as.csv format, You simply import it into R with the read_csv() and specify the path to the file in your working directory as:

penguins = readr::read_csv(file = "assets/penguins.csv")

To visualize the data we just imported, we simply type the name in console and click ENTER

penguins

# A tibble: 344 x 8
   species island    bill_length_mm bill_depth_mm flipper_~1 body_~2 sex    year
   <chr>   <chr>              <dbl>         <dbl>      <dbl>   <dbl> <chr> <dbl>
 1 Adelie  Torgersen           39.1          18.7        181    3750 male   2007
 2 Adelie  Torgersen           39.5          17.4        186    3800 fema~  2007
 3 Adelie  Torgersen           40.3          18          195    3250 fema~  2007
 4 Adelie  Torgersen           NA            NA           NA      NA <NA>   2007
 5 Adelie  Torgersen           36.7          19.3        193    3450 fema~  2007
 6 Adelie  Torgersen           39.3          20.6        190    3650 male   2007
 7 Adelie  Torgersen           38.9          17.8        181    3625 fema~  2007
 8 Adelie  Torgersen           39.2          19.6        195    4675 male   2007
 9 Adelie  Torgersen           34.1          18.1        193    3475 <NA>   2007
10 Adelie  Torgersen           42            20.2        190    4250 <NA>   2007
# ... with 334 more rows, and abbreviated variable names 1: flipper_length_mm,
#   2: body_mass_g

By simply print the loaded dataset, we a tabular shape data frame with eight variables (fields) and 344 rows (records).

4.4 Microsoft Excel(.xlsx)

Commonly our data is stored as a MS Excel file. we can import the file with read_xlsx() function of readxl package. The readxl package provides a function read_exel() that allows us to specify which sheet within the Excel file to read and what character specifies missing data (it assumes a blank cell is missing data if you don’t specifying anything). The function automatically convert the worksheet into a .csv file and read it. Let’s us import the the data in first sheet of the primary_productivity.xlsx. The dataset contain primary productivity value. We will use this file to illustrate how to import the excel file into R workspace with readxl package (Wickham and Bryan 2019).

penguins = readxl::read_excel("assets/penguins.xlsx")
penguins

# A tibble: 344 x 8
   species island    bill_length_mm     bill_depth~1 flipp~2 body_~3 sex    year
   <chr>   <chr>     <chr>              <chr>        <chr>   <chr>   <chr> <dbl>
 1 Adelie  Torgersen 39.1               18.7         181     3750    male   2007
 2 Adelie  Torgersen 39.5               17.39999999~ 186     3800    fema~  2007
 3 Adelie  Torgersen 40.299999999999997 18           195     3250    fema~  2007
 4 Adelie  Torgersen NA                 NA           NA      NA      NA     2007
 5 Adelie  Torgersen 36.700000000000003 19.3         193     3450    fema~  2007
 6 Adelie  Torgersen 39.299999999999997 20.6         190     3650    male   2007
 7 Adelie  Torgersen 38.9               17.8         181     3625    fema~  2007
 8 Adelie  Torgersen 39.200000000000003 19.60000000~ 195     4675    male   2007
 9 Adelie  Torgersen 34.1               18.10000000~ 193     3475    NA     2007
10 Adelie  Torgersen 42                 20.2         190     4250    NA     2007
# ... with 334 more rows, and abbreviated variable names 1: bill_depth_mm,
#   2: flipper_length_mm, 3: body_mass_g
…
