WIO-fish - 7 Exploratory-Data-Analysis-EDA
…
mimp = read_csv("assets/mimp_cfma_priority.csv")

Rows: 41404 Columns: 13
-- Column specification --------------------------------------------------------
Delimiter: ","
chr  (6): district, village, landing, gear_type, order, priority
dbl  (4): fishermen, weight, fish_number, fish_price
dttm (3): date, going_time, return_time

i Use `spec()` to retrieve the full column specification for this data.
i Specify the column types or set `show_col_types = FALSE` to quiet this message.

mimp

# A tibble: 41,404 x 13
   district village    landing  date                going_time         
   <chr>    <chr>      <chr>    <dttm>              <dttm>             
 1 Mafia    Chunguruma Tumbuju  2009-09-14 00:00:00 1899-12-31 09:00:00
 2 Mafia    Chunguruma Tumbuju  2009-09-14 00:00:00 1899-12-31 09:00:00
 3 Mafia    Kiegeani   Utende   2010-01-15 00:00:00 1899-12-31 08:30:00
 4 Mafia    Miburani   Kitoni   2010-01-29 00:00:00 1899-12-31 10:00:00
 5 Mafia    Dongo      Magemani 2009-06-17 00:00:00 1899-12-31 10:00:00
 6 Mafia    Chunguruma Tumbuju  2009-09-19 00:00:00 1899-12-31 12:00:00
 7 Mafia    Chunguruma Tumbuju  2009-09-19 00:00:00 1899-12-31 12:00:00
 8 Mafia    Bwejuu     Bwejuu   2009-12-13 00:00:00 1899-12-31 00:00:00
 9 Mafia    Bwejuu     Bwejuu   2009-12-13 00:00:00 1899-12-31 00:00:00
10 Mafia    Bwejuu     Bwejuu   2009-12-13 00:00:00 1899-12-31 00:00:00
# ... with 41,394 more rows, and 8 more variables: return_time <dttm>,
#   fishermen <dbl>, gear_type <chr>, order <chr>, priority <chr>,
#   weight <dbl>, fish_number <dbl>, fish_price <dbl>
…
mimp.clean = mimp %>% 
  # select(going_time, return_time) %>% 
  separate(going_time, into = c("day", "time_leave"), sep = " ")%>% 
  separate(return_time, into = c("day", "time_return"), sep = " ") %>% 
  mutate(time_leave = lubridate::hms(time_leave),
         time_return = lubridate::hms(time_return),
         fishing_time = time_return-time_leave,
         fishing_time_sec = as.numeric(fishing_time),
         fishing_time_hour = (fishing_time_sec/3600) %>% round(1)) %>% 
  select(-c(time_leave, day, fishing_time, fishing_time_sec, time_return)) %>% 
  relocate(fishing_time_hour,.after = date)

mimp.clean

# A tibble: 41,404 x 12
   district village    landing date                fishi~1 fishe~2 gear_~3 order
   <chr>    <chr>      <chr>   <dttm>                <dbl>   <dbl> <chr>   <chr>
 1 Mafia    Chunguruma Tumbuju 2009-09-14 00:00:00     6        15 BEACH ~ DASY~
 2 Mafia    Chunguruma Tumbuju 2009-09-14 00:00:00     6        15 BEACH ~ LETH~
 3 Mafia    Kiegeani   Utende  2010-01-15 00:00:00     4.5       1 STICK/~ Octo~
 4 Mafia    Miburani   Kitoni  2010-01-29 00:00:00     3         1 STICK/~ BELO~
 5 Mafia    Dongo      Magema~ 2009-06-17 00:00:00     3         1 STICK/~ SPHY~
 6 Mafia    Chunguruma Tumbuju 2009-09-19 00:00:00     7        18 STICK/~ CHIR~
 7 Mafia    Chunguruma Tumbuju 2009-09-19 00:00:00     7        18 STICK/~ GERR~
 8 Mafia    Bwejuu     Bwejuu  2009-12-13 00:00:00    23         1 DEMA T~ LETH~
 9 Mafia    Bwejuu     Bwejuu  2009-12-13 00:00:00    23         1 DEMA T~ LETH~
10 Mafia    Bwejuu     Bwejuu  2009-12-13 00:00:00    23         1 DEMA T~ SCAR~
# ... with 41,394 more rows, 4 more variables: priority <chr>, weight <dbl>,
#   fish_number <dbl>, fish_price <dbl>, and abbreviated variable names
#   1: fishing_time_hour, 2: fishermen, 3: gear_type
…
