WIO-fish - 6 Loading Data and Data Cleaning
…
6.1 Loading Data

Throughout this section and the following fisheries analysis and plotting sections, we’ll use a common data set. First, create a new folder in your working directory called “_data”. Next, download the following file onto your computer. Right click on the link, and save it in your”_data” folder.

Right click and save-link-as to download landings data

Let’s read this dataset into R and determine the structure of the dataset. The landings_data data frame is from a fishery-dependent landing site survey. The species included in this data set is Caesio cuning, a yellowtail fusilier. We’ll be able to use these data to create length-frequency histograms that describe the size structure of the population, as well as trends in catch and CPUE.

We can look at the raw data just by typing landings_data.

landings_data <- read_csv("_data/sample_landings_data_raw.csv")

landings_data

## # A tibble: 7,214 x 8
##       yy     dat  trip effort    gr             sp  l_cm      w_cm
##    <int>   <chr> <int>  <int> <chr>          <chr> <dbl>     <dbl>
##  1  2003 4/30/03     1     10  Trap Caesoi cunning    36 1089.1402
##  2  2003 4/30/03     1     10  trap  Caesio cuning    29  565.3879
##  3  2003 4/30/03     1     10  Trap  Caesio cuning    34  915.8276
##  4  2003 4/30/03     1     10  Trap  Caesio cuning    36 1089.1402
##  5  2003 4/30/03     1     10  Trap  Caesio cuning    34  915.8276
##  6  2003 4/30/03     1     10  Trap Caesoi cunning    28  508.3185
##  7  2003 4/30/03     1     10  Trap  Caesio cuning    30  626.6000
##  8  2003 4/30/03     1     10  Trap  Caesio cuning    27  455.2443
##  9  2003 4/30/03     1     10  Trap  Caesio cuning    33  836.5681
## 10  2003 4/30/03     1     10  Trap  Caesio cuning    35  999.9688
## # ... with 7,204 more rows
…
landings_data

## # A tibble: 7,214 x 8
##     Year       Date Trip_ID Effort_Hours  Gear        Species Length_cm
##    <int>     <date>   <int>        <int> <chr>          <chr>     <dbl>
##  1  2003 2003-04-30       1           10  Trap Caesoi cunning        36
##  2  2003 2003-04-30       1           10  trap  Caesio cuning        29
##  3  2003 2003-04-30       1           10  Trap  Caesio cuning        34
##  4  2003 2003-04-30       1           10  Trap  Caesio cuning        36
##  5  2003 2003-04-30       1           10  Trap  Caesio cuning        34
##  6  2003 2003-04-30       1           10  Trap Caesoi cunning        28
##  7  2003 2003-04-30       1           10  Trap  Caesio cuning        30
##  8  2003 2003-04-30       1           10  Trap  Caesio cuning        27
##  9  2003 2003-04-30       1           10  Trap  Caesio cuning        33
## 10  2003 2003-04-30       1           10  Trap  Caesio cuning        35
## # ... with 7,204 more rows, and 1 more variables: Weight_g <dbl>
…
## # A tibble: 3 x 8
##    Year       Date Trip_ID Effort_Hours     Gear       Species Length_cm
##   <int>     <date>   <int>        <int>    <chr>         <chr>     <dbl>
## 1  2003 2003-05-01      10           10     <NA> Caesio cuning    19.000
## 2  2003 2003-05-01      10           10 Handline Caesio cuning    19.000
## 3  2004 2004-12-18      NA            9     Trap Caesio cuning    20.104
## # ... with 1 more variables: Weight_g <dbl>

There are 3 rows in our dataframe with missing values. If we want to remove observations with missing data from our dataset we can use the na.omit function which will remove any rows with missing values from our dataset:

landings_data <- na.omit(landings_data)

landings_data

## # A tibble: 7,211 x 8
##     Year       Date Trip_ID Effort_Hours  Gear        Species Length_cm
##    <int>     <date>   <int>        <int> <chr>          <chr>     <dbl>
##  1  2003 2003-04-30       1           10  Trap Caesoi cunning        36
##  2  2003 2003-04-30       1           10  trap  Caesio cuning        29
##  3  2003 2003-04-30       1           10  Trap  Caesio cuning        34
##  4  2003 2003-04-30       1           10  Trap  Caesio cuning        36
##  5  2003 2003-04-30       1           10  Trap  Caesio cuning        34
##  6  2003 2003-04-30       1           10  Trap Caesoi cunning        28
##  7  2003 2003-04-30       1           10  Trap  Caesio cuning        30
##  8  2003 2003-04-30       1           10  Trap  Caesio cuning        27
##  9  2003 2003-04-30       1           10  Trap  Caesio cuning        33
## 10  2003 2003-04-30       1           10  Trap  Caesio cuning        35
## # ... with 7,201 more rows, and 1 more variables: Weight_g <dbl>
…
6.6 Saving clean data

Now that we have completed our data cleaning and screening, let’s examine the structure of our data frame again:

landings_data

## # A tibble: 7,208 x 8
##     Year       Date Trip_ID Effort_Hours  Gear       Species Length_cm
##    <int>     <date>   <int>        <int> <chr>         <chr>     <dbl>
##  1  2003 2003-04-30       1           10  trap Caesio cuning        36
##  2  2003 2003-04-30       1           10  trap Caesio cuning        29
##  3  2003 2003-04-30       1           10  trap Caesio cuning        34
##  4  2003 2003-04-30       1           10  trap Caesio cuning        36
##  5  2003 2003-04-30       1           10  trap Caesio cuning        34
##  6  2003 2003-04-30       1           10  trap Caesio cuning        28
##  7  2003 2003-04-30       1           10  trap Caesio cuning        30
##  8  2003 2003-04-30       1           10  trap Caesio cuning        27
##  9  2003 2003-04-30       1           10  trap Caesio cuning        33
## 10  2003 2003-04-30       1           10  trap Caesio cuning        35
## # ... with 7,198 more rows, and 1 more variables: Weight_g <dbl>
…
