WIO-fish - 15 Two Independent Samples Non-parametric
…
15.4 Paired samples

For this second scenario, consider that we administered a math test in a class of 12 students at the beginning of a semester, and that we administered a similar test at the end of the semester to the exact same students. We have the following data:

#> # A tibble: 24 x 2
#>   season      sst
#>   <chr>     <dbl>
#> 1 Northeast  24.9
#> 2 Southeast  19.4
#> 3 Northeast  23.9
#> 4 Southeast  27.0
#> 5 Northeast  25.6
#> 6 Southeast  22.6
#> # ... with 18 more rows
…
